%
M48
M72
T01C0.0120
T02C0.0197
T03C0.0280
T04C0.0320
T05C0.0354
T06C0.0433
T07C0.1063
T08C0.1575
%
T01
X21875Y21506
X17650Y23081
X21900Y25106
X24050Y26706
X24675Y27306
X22600Y27631
X21750Y28181
X21950Y28581
X21950Y29681
X22350Y29681
X24250Y30281
X22350Y30981
X21250Y30981
X20250Y29981
X20350Y27881
X20550Y27581
X16750Y27781
X28450Y29381
X27950Y29381
X26850Y29381
X26150Y29381
X27150Y30681
X27550Y30681
T02
X33556Y32836
X32556Y32836
X21744Y32836
X20744Y32836
X24681Y32836
X25681Y32836
X28619Y32836
X29619Y32836
T03
X22250Y20681
X25750Y20681
X25750Y22681
X27741Y23681
X29150Y22781
X29150Y20581
X28250Y31281
X19050Y33581
T04
X32450Y27781
X31450Y27781
X30450Y27781
X30450Y30781
X31450Y30781
X32450Y30781
T05
X20788Y18273
X20788Y19273
X19788Y19273
X18788Y19273
X18788Y18273
X19788Y18273
T06
X12373Y13700
X41928Y13700
X15928Y33862
X38373Y33862
T07
X14888Y14360
X44065Y15181
X36235Y32381
X13412Y33202
T08
X12189Y11576
X42111Y11576
M30
