"Qty","Part Number","Device","Package","Ref. Desig.","Description","DIGIKEY","PRICE_PER_100UNIT","PRICE_PER_UNIT",
"2","","BATTERY_HOLDER-1XAA","1*AA_BATTERY_HOLDER","VBAT100, VBAT101","Coin Cell Holder :-  __BU2032SM-HD-G__  __BC-2400-ND__","36-2460-ND ","0.8649","1.57",
"2","0.1UF","CAPACITOR-0.1UF/6.3V","C0603","C5, C6","CAPACITOR","490-9730-1-ND","","0.1",
"11","10K","RESISTOR-10K_1/8W","R0603","R6, R8, R9, R10, R11, R12, R13, R14, R15, R16, R17","Resistance","MCT0603-10.0K-CFCT-ND","","0.08",
"1","10UF","CAPACITOR-10UF/6.3V","C1206","C3","CAPACITOR","1276-1079-1-ND","","0.23",
"4","1K","RESISTOR-0R","R0603","R1, R2, R3, R4","Resistance","P0.0GCT-ND","","0.1",
"1","1UF","CAPACITOR-1UF/6.3V","C0603","C4","CAPACITOR","1276-1024-1-ND","","0.1",
"3","330R","RESISTOR-330R_1/10W","R0603","R18, R19, R20","Resistance","RMCF0603JT330RCT-ND","","0.1",
"1","4.7K","RESISTOR-0R","R0603","R7","Resistance","P0.0GCT-ND","","0.1",
"1","47K","RESISTOR-0R","R0603","R5","Resistance","P0.0GCT-ND","","0.1",
"2","47UF","CAPACITOR-47UF/6.3V","C1206","C1, C2","CAPACITOR","311-1993-1-ND","","0.47",
"1","ATMEGA328P","ATMEGA328P","TQFP-32","ATMEGA328P","","ATMEGA328P-AURCT-ND","","3.7",
"1","AVRISP-6","AVRISP-6","AVRISP","ISP","AVR ISP HEADER","","","",
"4","LED-IR","LED-IR","IR-LED","LED1, LED2, LED3, LED4","","1080-1076-ND ","0.1628","0.39",
"1","RGB-LED","RGB-LED","LRTB-GFTM","RGB","","CLY6D-FKC-CK1N1D1BB7D3D3CT-ND ","0.432","0.49",
"1","SW_DIP-3","SW_DIP-3","EDG-03","SW1","","732-3833-5-ND","","1.4",
"6","TACTILE","TACTILE","TACTILE-SMD-4.5X4.5","F1, F2, F3, F4, F5, F6","http://www.digikey.com/product-detail/en/FSM4JSMA/450-1129-ND/525821","EG5353CT-ND ","0.1823","0.21",
"4","TACTILE-12X12","TACTILE-12X12","TAC-SMD-12X12","DOWN, LEFT, RIGHT, UP","http://www.digikey.com/product-detail/en/FSM4JSMA/450-1129-ND/525821","EG4904DKR-ND ","0.4937","0.63",
"4","TESTPAD","TESTPAD","B2,54","GND, RX, TX, VDD","","No Part. Plain copper pads","","0",
"1","TRANSISTOR_NPN-2222","TRANSISTOR_NPN-2222","SOT23-R","T1","","568-1738-1-ND","","0.12",
